{
  "images" : [
    {
      "idiom" : "universal",
      "filename" : "a12f5b0b-afe5-4098-abfb-6fa797a297f3.png",
      "scale" : "1x"
    },
    {
      "idiom" : "universal",
      "scale" : "2x"
    },
    {
      "idiom" : "universal",
      "scale" : "3x"
    }
  ],
  "info" : {
    "version" : 1,
    "author" : "xcode"
  }
}